<svg xmlns="http://www.w3.org/2000/svg" width="464" height="464" viewBox="0 0 464 464">
  <g id="ICGallery" transform="translate(0 0)">
    <path id="Exclusão_1" data-name="Exclusão 1" d="M312-67H264l-14.915-24.4a74.42,74.42,0,0,0,1.405-18.046L256-99h24V-275H-24v70.6c-19.322.6-31.875,1.4-32,1.4V-307H312V-67Zm-61.512-42.447-32.3-61.208a78.665,78.665,0,0,1,25.649,31.533,77.936,77.936,0,0,1,5,15.746,83.96,83.96,0,0,1,1.648,13.928Zm-32.3-61.211a114.951,114.951,0,0,0-29.1-15.3A225.5,225.5,0,0,0,155.11-195h50.233l12.845,24.343ZM155.1-195H-24v-9.4c14.447-.447,28.934-.674,43.061-.674,24.463,0,47.444.679,68.3,2.019,26.021,1.671,48.81,4.382,67.736,8.056Z" transform="translate(152 307)" fill="#aa1a29"/>
    <path id="Exclusão_2" data-name="Exclusão 2" d="M-7.27,232H-90V-8H278V16L259.906,34.753c-.48.13-48.557,13.133-104.324,31.47-32.616,10.725-61.3,21.111-85.265,30.87-29.953,12.2-52.566,23.447-67.209,33.432-19.567,13.342-29.157,27.261-28.5,41.37a33.656,33.656,0,0,0,4.9,15.533,55.794,55.794,0,0,0,9.748,11.982A76.9,76.9,0,0,0,3.108,209.853ZM-58,24V200h29.71l-13.088-64.928L222,24Z" transform="translate(90 104)" fill="#aa1a29"/>
    <path id="Exclusão_3" data-name="Exclusão 3" d="M114,178h0L26-54,370-182,458,42,114,178ZM354-142,66-30l64,168L418,26Z" transform="translate(6 286)" fill="#aa1a29"/>
    <circle id="Elipse_1" data-name="Elipse 1" cx="24" cy="24" r="24" transform="translate(64 160)" fill="#aa1a29"/>
    <path id="Caminho_7" data-name="Caminho 7" d="M152.168,417.5,160,288l109.168,84.336Z" fill="#aa1a29"/>
    <path id="Caminho_8" data-name="Caminho 8" d="M424,312l-10-25.832L312,232v32l-72-48L223.664,337.336l45.5,35Z" fill="#aa1a29"/>
  </g>
</svg>
